[gd_scene load_steps=5 format=2]

[ext_resource path="res://effects/Lapida/Lapida.png" type="Texture" id=1]
[ext_resource path="res://effects/Lapida/Lapida.gd" type="Script" id=2]
[ext_resource path="res://effects/Humos/Poof/Poof.tscn" type="PackedScene" id=3]

[sub_resource type="Animation" id=1]

resource_name = "Play"
length = 3.15
loop = false
step = 0.05
tracks/0/type = "value"
tracks/0/path = NodePath(".:frame")
tracks/0/interp = 1
tracks/0/loop_wrap = true
tracks/0/imported = false
tracks/0/enabled = true
tracks/0/keys = {
"times": PoolRealArray( 0, 0.1, 0.25, 0.35, 0.45, 0.6, 0.7 ),
"transitions": PoolRealArray( 1, 1, 1, 1, 1, 1, 1 ),
"update": 1,
"values": [ 0, 1, 2, 3, 4, 5, 6 ]
}

[node name="Lapida" type="Sprite" index="0"]

z_index = -3
texture = ExtResource( 1 )
offset = Vector2( 0, 4 )
vframes = 2
hframes = 4
frame = 7
script = ExtResource( 2 )
Poof = ExtResource( 3 )

[node name="AnimationPlayer" type="AnimationPlayer" parent="." index="0"]

root_node = NodePath("..")
autoplay = "Play"
playback_process_mode = 1
playback_default_blend_time = 0.0
playback_speed = 1.0
anims/Play = SubResource( 1 )
blend_times = [  ]

[connection signal="animation_finished" from="AnimationPlayer" to="." method="_on_animation_finished"]


