[gd_scene load_steps=4 format=2]

[ext_resource path="res://imagenes/items/LlaveAmarilla.png" type="Texture" id=1]
[ext_resource path="res://items/Item/Item.gd" type="Script" id=2]

[sub_resource type="RectangleShape2D" id=1]

custom_solver_bias = 0.0
extents = Vector2( 4.5, 7.5 )

[node name="LlaveAmarilla" type="Sprite" index="0"]

z_index = -7
texture = ExtResource( 1 )
offset = Vector2( 8, 8 )
script = ExtResource( 2 )
_sections_unfolded = [ "Z Index" ]
TC_NAME = "LlaveAmarilla"

[node name="Area2D" type="Area2D" parent="." index="0"]

editor/display_folded = true
position = Vector2( 8.5, 7.5 )
input_pickable = true
gravity_vec = Vector2( 0, 1 )
gravity = 98.0
linear_damp = 0.1
angular_damp = 1.0
audio_bus_override = false
audio_bus_name = "Master"
_sections_unfolded = [ "Transform" ]

[node name="CollisionShape2D" type="CollisionShape2D" parent="Area2D" index="0"]

shape = SubResource( 1 )
_sections_unfolded = [ "Transform" ]

[connection signal="area_entered" from="Area2D" to="." method="_on_area_entered"]

[connection signal="area_exited" from="Area2D" to="." method="_on_area_exited"]


