[gd_scene load_steps=6 format=2]

[ext_resource path="res://objetos/CanionLaser/CanionLaser.png" type="Texture" id=1]
[ext_resource path="res://objetos/CanionLaser/CanionLaser.gd" type="Script" id=2]
[ext_resource path="res://objetos/RayoLaser/RayoLaser.tscn" type="PackedScene" id=3]

[sub_resource type="Animation" id=1]

resource_name = "Dispara"
length = 1.7
loop = false
step = 0.1
tracks/0/type = "value"
tracks/0/path = NodePath(".:frame")
tracks/0/interp = 1
tracks/0/loop_wrap = true
tracks/0/imported = false
tracks/0/enabled = true
tracks/0/keys = {
"times": PoolRealArray( 0, 0.1, 0.2, 0.3, 0.4, 0.5, 0.6, 0.7, 0.8, 0.9, 1, 1.1, 1.2, 1.3, 1.4, 1.5, 1.6, 1.7 ),
"transitions": PoolRealArray( 1, 1, 1, 1, 1, 1, 1, 1, 1, 1, 1, 1, 1, 1, 1, 1, 1, 1 ),
"update": 1,
"values": [ 1, 1, 2, 3, 4, 5, 6, 7, 8, 9, 8, 9, 8, 9, 8, 9, 8, 9 ]
}

[sub_resource type="RectangleShape2D" id=2]

custom_solver_bias = 0.0
extents = Vector2( 10, 10 )

[node name="CanionLaser" type="Sprite" index="0"]

texture = ExtResource( 1 )
vframes = 5
hframes = 2
frame = 8
script = ExtResource( 2 )
_sections_unfolded = [ "Animation" ]
Laser = ExtResource( 3 )

[node name="AnimationPlayer" type="AnimationPlayer" parent="." index="0"]

root_node = NodePath("..")
autoplay = "Dispara"
playback_process_mode = 1
playback_default_blend_time = 0.0
playback_speed = 1.0
anims/Dispara = SubResource( 1 )
blend_times = [  ]

[node name="Area2D" type="Area2D" parent="." index="1"]

editor/display_folded = true
input_pickable = true
gravity_vec = Vector2( 0, 1 )
gravity = 98.0
linear_damp = 0.1
angular_damp = 1.0
audio_bus_override = false
audio_bus_name = "Master"

[node name="CollisionShape2D" type="CollisionShape2D" parent="Area2D" index="0"]

shape = SubResource( 2 )

[node name="Timer" type="Timer" parent="." index="2"]

process_mode = 1
wait_time = 1.0
one_shot = true
autostart = false

[connection signal="animation_finished" from="AnimationPlayer" to="." method="_on_animation_finished"]


