[gd_scene load_steps=6 format=2]

[ext_resource path="res://objetos/Flecha/Flecha.gd" type="Script" id=1]
[ext_resource path="res://effects/Chispas/Chispa1/Chispa1.tscn" type="PackedScene" id=2]
[ext_resource path="res://objetos/Flecha/Flecha.png" type="Texture" id=3]

[sub_resource type="RectangleShape2D" id=1]

custom_solver_bias = 0.0
extents = Vector2( 8, 2.5 )

[sub_resource type="Animation" id=2]

length = 0.6
loop = false
step = 0.05
tracks/0/type = "value"
tracks/0/path = NodePath("Sprite:frame")
tracks/0/interp = 1
tracks/0/loop_wrap = true
tracks/0/imported = false
tracks/0/enabled = true
tracks/0/keys = {
"times": PoolRealArray( 0, 0.2, 0.4 ),
"transitions": PoolRealArray( 1, 1, 1 ),
"update": 1,
"values": [ 1, 2, 3 ]
}

[node name="Flecha" type="KinematicBody2D"]

input_pickable = false
collision_layer = 256
collision_mask = 15
collision/safe_margin = 0.08
script = ExtResource( 1 )
_sections_unfolded = [ "Collision" ]
Chispa = ExtResource( 2 )

[node name="CollisionShape2D" type="CollisionShape2D" parent="." index="0"]

position = Vector2( 0, -0.5 )
shape = SubResource( 1 )

[node name="Sprite" type="Sprite" parent="." index="1"]

texture = ExtResource( 3 )
hframes = 4
_sections_unfolded = [ "Animation" ]

[node name="animacion" type="AnimationPlayer" parent="." index="2"]

root_node = NodePath("..")
autoplay = ""
playback_process_mode = 1
playback_default_blend_time = 0.0
playback_speed = 1.0
anims/Destruir = SubResource( 2 )
blend_times = [  ]

[connection signal="animation_finished" from="animacion" to="." method="_on_animation_finished"]


