[gd_scene load_steps=2 format=2]

[ext_resource path="res://imagenes/noche/ZZZ.gd" type="Script" id=1]

[node name="ZZZ" type="Node2D" index="0"]

script = ExtResource( 1 )

[node name="Timer" type="Timer" parent="." index="0"]

process_mode = 1
wait_time = 0.75
one_shot = true
autostart = false

[connection signal="timeout" from="Timer" to="." method="_on_Timer_timeout"]


